{
  "name": "sock-shop",
  "services": [
    {
      "name": "user",
      "scheduling": {
        "beta.kubernetes.io/os": "linux"
      },
      "scale": {
        "min": 1,
        "max": 10,
        "targetCpu": 66
      },
      "request": {
        "cpu": 100,
        "memory": 64,
        "ephemeral_storage": 2
      },
      "ports": [
        80
      ],
      "container": {
        "name": "user",
        "image": "weaveworksdemos/user:0.4.4"
      }
    },
    {
      "name": "user-db",
      "scheduling": {
        "beta.kubernetes.io/os": "linux"
      },
      "scale": {
        "min": 1,
        "max": 10,
        "targetCpu": 66
      },
      "request": {
        "cpu": 150,
        "memory": 128,
        "ephemeral_storage": 2
      },
      "ports": [
        27017
      ],
      "volumes": [
        {
          "name": "tmp-volume",
          "type": "emptydir",
          "mountPath": "/tmp"
        }
      ],
      "container": {
        "name": "user-db",
        "image": "weaveworksdemos/user-db:0.4.7",
        "environment": {
          "MONGO_HOST": "user-db:27017"
        }
      }
    },
    {
      "name": "front-end",
      "scheduling": {
        "beta.kubernetes.io/os": "linux"
      },
      "scale": {
        "min": 1,
        "max": 10,
        "targetCpu": 66
      },
      "request": {
        "cpu": 100,
        "memory": 64,
        "ephemeral_storage": 2
      },
      "ports": [
        80
      ],
      "expose": [
        {
          "80": 32500
        }
      ],
      "container": {
        "name": "front-end",
        "image": "weaveworksdemos/front-end:0.3.12",
        "ports": [
          8079
        ]
      }
    },
    {
      "name": "catalogue",
      "scheduling": {
        "beta.kubernetes.io/os": "linux"
      },
      "scale": {
        "min": 1,
        "max": 10,
        "targetCpu": 66
      },
      "request": {
        "cpu": 100,
        "memory": 64,
        "ephemeral_storage": 2
      },
      "ports": [
        80
      ],
      "container": {
        "name": "catalogue",
        "image": "weaveworksdemos/catalogue:0.3.5"
      }
    },
    {
      "name": "catalogue-db",
      "scheduling": {
        "beta.kubernetes.io/os": "linux"
      },
      "scale": {
        "min": 1,
        "max": 10,
        "targetCpu": 66
      },
      "request": {
        "cpu": 200,
        "memory": 256,
        "ephemeral_storage": 2
      },
      "ports": [
        3306
      ],
      "container": {
        "name": "catalogue-db",
        "image": "weaveworksdemos/catalogue-db:0.3.0",
        "environment": {
          "MYSQL_ROOT_PASSWORD": "${MYSQL_ROOT_PASSWORD}",
          "MYSQL_ALLOW_EMPTY_PASSWORD": "true",
          "MYSQL_DATABASE": "socksdb"
        }
      }
    },
    {
      "name": "carts",
      "scheduling": {
        "beta.kubernetes.io/os": "linux"
      },
      "scale": {
        "min": 1,
        "max": 10,
        "targetCpu": 66
      },
      "request": {
        "cpu": 100,
        "memory": 64,
        "ephemeral_storage": 2
      },
      "ports": [
        80
      ],
      "volumes": [
        {
          "name": "tmp-volume",
          "type": "emptydir",
          "mountPath": "/tmp"
        }
      ],
      "container": {
        "name": "carts",
        "image": "weaveworksdemos/carts:0.4.8",
        "environment": {
          "JAVA_OPTS": "-Xms64m -Xmx128m -XX:+UseG1GC-Djava.security.egd=file:/dev/urandom -Dspring.zipkin.enabled=false",
          "ZIPKIN": "zipkin.zipkin.svc.cluster.local"
        }
      }
    },
    {
      "name": "carts-db",
      "scheduling": {
        "beta.kubernetes.io/os": "linux"
      },
      "scale": {
        "min": 1,
        "max": 10,
        "targetCpu": 66
      },
      "request": {
        "cpu": 100,
        "memory": 64,
        "ephemeral_storage": 2
      },
      "ports": [
        27017
      ],
      "volumes": [
        {
          "name": "tmp-volume",
          "type": "emptydir",
          "mountPath": "/tmp"
        }
      ],
      "container": {
        "name": "carts-db",
        "image": "mongo:3.4"
      }
    },
    {
      "name": "orders",
      "scheduling": {
        "beta.kubernetes.io/os": "linux"
      },
      "scale": {
        "min": 1,
        "max": 10,
        "targetCpu": 66
      },
      "request": {
        "cpu": 150,
        "memory": 128,
        "ephemeral_storage": 2
      },
      "ports": [
        80
      ],
      "volumes": [
        {
          "name": "tmp-volume",
          "type": "emptydir",
          "mountPath": "/tmp"
        }
      ],
      "container": {
        "name": "orders",
        "image": "weaveworksdemos/orders:0.4.7",
        "environment": {
          "JAVA_OPTS": "-Xms64m -Xmx128m -XX:+UseG1GC-Djava.security.egd=file:/dev/urandom -Dspring.zipkin.enabled=false"
        }
      }
    },
    {
      "name": "orders-db",
      "scheduling": {
        "beta.kubernetes.io/os": "linux"
      },
      "scale": {
        "min": 1,
        "max": 10,
        "targetCpu": 66
      },
      "request": {
        "cpu": 100,
        "memory": 64,
        "ephemeral_storage": 2
      },
      "ports": [
        27017
      ],
      "volumes": [
        {
          "name": "tmp-volume",
          "type": "emptydir",
          "mountPath": "/tmp"
        }
      ],
      "container": {
        "name": "orders-db",
        "image": "mongo:3.4"
      }
    },
    {
      "name": "shipping",
      "scheduling": {
        "beta.kubernetes.io/os": "linux"
      },
      "scale": {
        "min": 1,
        "max": 10,
        "targetCpu": 66
      },
      "request": {
        "cpu": 150,
        "memory": 128,
        "ephemeral_storage": 2
      },
      "ports": [
        80
      ],
      "volumes": [
        {
          "name": "tmp-volume",
          "type": "emptydir",
          "mountPath": "/tmp"
        }
      ],
      "container": {
        "name": "shipping",
        "image": "weaveworksdemos/shipping:0.4.8",
        "environment": {
          "JAVA_OPTS": "-Xms64m -Xmx128m -XX:+UseG1GC-Djava.security.egd=file:/dev/urandom -Dspring.zipkin.enabled=false"
        }
      }
    },
    {
      "name": "queue-master",
      "scheduling": {
        "beta.kubernetes.io/os": "linux"
      },
      "scale": {
        "min": 1,
        "max": 10,
        "targetCpu": 66
      },
      "request": {
        "cpu": 200,
        "memory": 256,
        "ephemeral_storage": 2
      },
      "ports": [
        80
      ],
      "container": {
        "name": "queue-master",
        "image": "weaveworksdemos/queue-master:0.3.1"
      }
    },
    {
      "name": "rabbitmq",
      "scheduling": {
        "beta.kubernetes.io/os": "linux"
      },
      "scale": {
        "min": 1,
        "max": 10,
        "targetCpu": 66
      },
      "request": {
        "cpu": 100,
        "memory": 64,
        "ephemeral_storage": 2
      },
      "ports": [
        5672
      ],
      "container": {
        "name": "rabbitmq",
        "image": "rabbitmq:3.6.8",
        "ports": [
          5672
        ]
      }
    },
    {
      "name": "payment",
      "scheduling": {
        "beta.kubernetes.io/os": "linux"
      },
      "scale": {
        "min": 1,
        "max": 10,
        "targetCpu": 66
      },
      "request": {
        "cpu": 100,
        "memory": 64,
        "ephemeral_storage": 2
      },
      "ports": [
        80
      ],
      "container": {
        "name": "payment",
        "image": "weaveworksdemos/payment:0.4.3"
      }
    }
  ]
}
